<?xml version="1.0" encoding="UTF-8" standalone="no"?>
<!DOCTYPE Nodes [

<!ENTITY % NameValue "CDATA">
<!ENTITY % PropType "(I|S|D|L|H|B)">
<!ENTITY % VersionValue "CDATA">

<!ELEMENT Prp (#PCDATA)>
<!ELEMENT Node (Node|Prp)*>
<!ELEMENT Nodes (Node)+>

<!ATTLIST Nodes version CDATA "1">

<!ATTLIST Node name CDATA #REQUIRED>

<!ATTLIST Prp name CDATA #REQUIRED>
<!ATTLIST Prp type CDATA #REQUIRED>
<!ATTLIST Prp value CDATA #REQUIRED>
]>
<Nodes version="1">
	<Node name="root">
		<Node name="projects">
			<Node name="project0">
				<Node name="tests">
					<Node name="test3">
						<Node name="warnings"/>
						<Node name="errors">
							<Node name="error1">
								<Prp name="msg" type="S" value="The test run has stopped because your test project is configured to stop on errors."/>
							</Node>
							<Node name="error0">
								<Prp name="msg" type="S" value="Unable to obtain the item's rectangle."/>
							</Node>
						</Node>
						<Prp name="status" type="I" value="2"/>
						<Prp name="starttime" type="D" value="44833.439388912"/>
						<Prp name="duration" type="I" value="33651"/>
						<Prp name="durationwithoutchildren" type="I" value="33651"/>
						<Prp name="name" type="S" value="DeleteDepartement"/>
						<Prp name="executionpoint" type="S" value="executionpoint://ewA5ADIAQQA0AEEAQQBEADkALQBGAEYARAA1AC0ANABCADYARQAtAEIAQwBFADcALQAwAEUAOAAyAEEAMABDAEUANQA4ADcANAB9AC8AewAwADAAMAAwADAAMAAwADAALQAwADAAMAAwAC0AMAAwADAAMAAtADAAMAAwADAALQAwADAAMAAwADAAMAAwADAAMAAwADAAMAB9AC8AZQBtAHAAdAB5AC8AZQBtAHAAdAB5AA=="/>
					</Node>
					<Node name="test1">
						<Node name="warnings"/>
						<Node name="errors">
							<Node name="error1">
								<Prp name="msg" type="S" value="The test run has stopped because your test project is configured to stop on errors."/>
							</Node>
							<Node name="error0">
								<Prp name="msg" type="S" value="The combo box item 'ALL DIVISION' not found."/>
							</Node>
						</Node>
						<Prp name="status" type="I" value="2"/>
						<Prp name="starttime" type="D" value="44833.4390190972"/>
						<Prp name="duration" type="I" value="9430"/>
						<Prp name="durationwithoutchildren" type="I" value="9430"/>
						<Prp name="name" type="S" value="CreateDepartement"/>
						<Prp name="executionpoint" type="S" value="executionpoint://ewA3ADkAMwAzADkAQwA5AEUALQA5AEMANQA2AC0ANAAzADUANAAtADgARQA1AEYALQA4AEUAQQAyAEUAQQA1ADgAMAA3ADIAOAB9AC8AewAwADAAMAAwADAAMAAwADAALQAwADAAMAAwAC0AMAAwADAAMAAtADAAMAAwADAALQAwADAAMAAwADAAMAAwADAAMAAwADAAMAB9AC8AZQBtAHAAdAB5AC8AZQBtAHAAdAB5AA=="/>
					</Node>
					<Node name="test2">
						<Node name="warnings"/>
						<Node name="errors">
							<Node name="error1">
								<Prp name="msg" type="S" value="The test run has stopped because your test project is configured to stop on errors."/>
							</Node>
							<Node name="error0">
								<Prp name="msg" type="S" value="There was an attempt to perform an action at point (74, 12) which is transparent or out of the window bounds."/>
							</Node>
						</Node>
						<Prp name="status" type="I" value="2"/>
						<Prp name="starttime" type="D" value="44833.4391284143"/>
						<Prp name="duration" type="I" value="22492"/>
						<Prp name="durationwithoutchildren" type="I" value="22492"/>
						<Prp name="name" type="S" value="EditDepartement"/>
						<Prp name="executionpoint" type="S" value="executionpoint://ewA1AEEAMgAxADcAQQA3ADEALQAxADYARgA1AC0ANABBAEUAQgAtAEIARABFADkALQBEADIANAA1ADgARABGAEUAMwA3AEEARQB9AC8AewAwADAAMAAwADAAMAAwADAALQAwADAAMAAwAC0AMAAwADAAMAAtADAAMAAwADAALQAwADAAMAAwADAAMAAwADAAMAAwADAAMAB9AC8AZQBtAHAAdAB5AC8AZQBtAHAAdAB5AA=="/>
					</Node>
					<Node name="test0">
						<Node name="warnings"/>
						<Node name="errors"/>
						<Prp name="status" type="I" value="0"/>
						<Prp name="starttime" type="D" value="44833.4389582407"/>
						<Prp name="duration" type="I" value="5243"/>
						<Prp name="durationwithoutchildren" type="I" value="5243"/>
						<Prp name="name" type="S" value="LoginAdmin_2"/>
						<Prp name="executionpoint" type="S" value="executionpoint://ewBCAEQANgAwAEEAOAAxAEQALQBCADEAQwA2AC0ANABFADcARQAtADkAQQBBADcALQBGAEUAOQAxAEEANABGADkAMAA2ADcAMQB9AC8AewAwADAAMAAwADAAMAAwADAALQAwADAAMAAwAC0AMAAwADAAMAAtADAAMAAwADAALQAwADAAMAAwADAAMAAwADAAMAAwADAAMAB9AC8AZQBtAHAAdAB5AC8AZQBtAHAAdAB5AA=="/>
					</Node>
				</Node>
				<Prp name="starttime" type="D" value="44833.4389582407"/>
				<Prp name="duration" type="I" value="70816"/>
				<Prp name="incompletedtests" type="I" value="0"/>
				<Prp name="warningtests" type="I" value="0"/>
				<Prp name="failedtests" type="I" value="3"/>
				<Prp name="name" type="S" value="EMS"/>
			</Node>
		</Node>
		<Prp name="host" type="S" value="DESKTOP-NMKI4J9"/>
		<Prp name="warningtests" type="I" value="0"/>
		<Prp name="stop" type="D" value="44833.4397798843"/>
		<Prp name="executionstatus" type="I" value="2"/>
		<Prp name="warningtestwithretries" type="I" value="0"/>
		<Prp name="user" type="S" value="Gamatechno"/>
		<Prp name="failedtests" type="I" value="3"/>
		<Prp name="testname" type="S" value="EMS: Departement"/>
		<Prp name="incompletedtests" type="I" value="0"/>
		<Prp name="starttime" type="D" value="44833.4389407523"/>
		<Prp name="key" type="S" value="{50FAF574-9245-4D5C-A078-03E4D3B9F117}"/>
		<Prp name="name" type="S" value="Sintesis"/>
		<Prp name="successtestwithretries" type="I" value="0"/>
		<Prp name="tests" type="I" value="4"/>
	</Node>
</Nodes>